{
  "project_info": {
    "project_number": "1013397875418",
    "firebase_url": "https://crpg-android.firebaseio.com",
    "project_id": "crpg-android",
    "storage_bucket": "crpg-android.appspot.com"
  },
  "client": [
    {
      "client_info": {
        "mobilesdk_app_id": "1:1013397875418:android:0f298c9151502a7d",
        "android_client_info": {
          "package_name": "com.crpg"
        }
      },
      "oauth_client": [
        {
          "client_id": "1013397875418-2hjgs1h0vagis6q9j5tg366tpn5kpqb1.apps.googleusercontent.com",
          "client_type": 3
        }
      ],
      "api_key": [
        {
          "current_key": "AIzaSyAtYUoQO6yK0LEHYyfULKzbFMcVCjLir2Q"
        }
      ],
      "services": {
        "analytics_service": {
          "status": 1
        },
        "appinvite_service": {
          "status": 1,
          "other_platform_oauth_client": []
        },
        "ads_service": {
          "status": 2
        }
      }
    }
  ],
  "configuration_version": "1"
}